\relax 
\catcode `"\active 
\catcode `<\active 
\catcode `>\active 
\@nameuse{es@quoting}
\providecommand \oddpage@label [2]{}
\babel@aux{spanish}{}
\@writefile{toc}{\contentsline {chapter}{\numberline {1}\IeC {\'I}ndice de estructura de datos}{1}}
\@writefile{lof}{\addvspace {10\p@ }}
\@writefile{lot}{\addvspace {10\p@ }}
\@writefile{toc}{\contentsline {section}{\numberline {1.1}Estructura de datos}{1}}
\@writefile{toc}{\contentsline {chapter}{\numberline {2}Indice de archivos}{3}}
\@writefile{lof}{\addvspace {10\p@ }}
\@writefile{lot}{\addvspace {10\p@ }}
\@writefile{toc}{\contentsline {section}{\numberline {2.1}Lista de archivos}{3}}
\@writefile{toc}{\contentsline {chapter}{\numberline {3}Documentaci\IeC {\'o}n de las estructuras de datos}{5}}
\@writefile{lof}{\addvspace {10\p@ }}
\@writefile{lot}{\addvspace {10\p@ }}
\@writefile{toc}{\contentsline {section}{\numberline {3.1}Referencia de la Estructura Point}{5}}
\newlabel{struct_point}{{3.1}{5}}
\@writefile{toc}{\contentsline {subsection}{\numberline {3.1.1}Documentaci\IeC {\'o}n de los campos}{5}}
\newlabel{struct_point_ad0da36b2558901e21e7a30f6c227a45e}{{3.1.1}{5}}
\@writefile{toc}{\contentsline {subsubsection}{\numberline {3.1.1.1}x}{5}}
\newlabel{struct_point_aa4f0d3eebc3c443f9be81bf48561a217}{{3.1.1.1}{5}}
\@writefile{toc}{\contentsline {subsubsection}{\numberline {3.1.1.2}y}{5}}
\newlabel{struct_point_af73583b1e980b0aa03f9884812e9fd4d}{{3.1.1.2}{5}}
\@writefile{toc}{\contentsline {subsubsection}{\numberline {3.1.1.3}z}{5}}
\@writefile{toc}{\contentsline {chapter}{\numberline {4}Documentaci\IeC {\'o}n de archivos}{7}}
\@writefile{lof}{\addvspace {10\p@ }}
\@writefile{lot}{\addvspace {10\p@ }}
\@writefile{toc}{\contentsline {section}{\numberline {4.1}Referencia del Archivo /home/fernando/\discretionary {\unhbox \voidb@x \hbox {\relax \fontsize  {7}{8}\selectfont  $\leftarrow \joinrel  \rhook $}}{}{}Bitbucket/opp-\/in-\/c/main.c}{7}}
\newlabel{main_8c}{{4.1}{7}}
\@writefile{toc}{\contentsline {subsection}{\numberline {4.1.1}Documentaci\IeC {\'o}n de las funciones}{7}}
\newlabel{main_8c_a840291bc02cba5474a4cb46a9b9566fe}{{4.1.1}{7}}
\@writefile{toc}{\contentsline {subsubsection}{\numberline {4.1.1.1}main()}{7}}
\newlabel{main_8c_ac6477d011880695cc87b56eceabad40a}{{4.1.1.1}{7}}
\@writefile{toc}{\contentsline {subsubsection}{\numberline {4.1.1.2}prom()}{7}}
\newlabel{main_8c_a811b5c0c7eba147e4a75b42d64daaf98}{{4.1.1.2}{7}}
\@writefile{toc}{\contentsline {subsubsection}{\numberline {4.1.1.3}suma()}{8}}
\@writefile{toc}{\contentsline {section}{\numberline {4.2}Referencia del Archivo /home/fernando/\discretionary {\unhbox \voidb@x \hbox {\relax \fontsize  {7}{8}\selectfont  $\leftarrow \joinrel  \rhook $}}{}{}Bitbucket/opp-\/in-\/c/\discretionary {\unhbox \voidb@x \hbox {\relax \fontsize  {7}{8}\selectfont  $\leftarrow \joinrel  \rhook $}}{}{}Pointx.h}{8}}
\newlabel{_pointx_8h}{{4.2}{8}}
\@writefile{toc}{\contentsline {subsection}{\numberline {4.2.1}Documentaci\IeC {\'o}n de las funciones}{8}}
\newlabel{_pointx_8h_a05b58051a76daee83da1870408e6d314}{{4.2.1}{8}}
\@writefile{toc}{\contentsline {subsubsection}{\numberline {4.2.1.1}Point\discretionary {\unhbox \voidb@x \hbox {\relax \fontsize  {7}{8}\selectfont  $\leftarrow \joinrel  \rhook $}}{}{}\_\discretionary {\unhbox \voidb@x \hbox {\relax \fontsize  {7}{8}\selectfont  $\leftarrow \joinrel  \rhook $}}{}{}create()}{8}}
\newlabel{_pointx_8h_a137b95d1c5b8b633c6110c0ce7ccc667}{{4.2.1.1}{8}}
\@writefile{toc}{\contentsline {subsubsection}{\numberline {4.2.1.2}Point\discretionary {\unhbox \voidb@x \hbox {\relax \fontsize  {7}{8}\selectfont  $\leftarrow \joinrel  \rhook $}}{}{}\_\discretionary {\unhbox \voidb@x \hbox {\relax \fontsize  {7}{8}\selectfont  $\leftarrow \joinrel  \rhook $}}{}{}init()}{8}}
