\babel@toc {spanish}{}
\contentsline {chapter}{\numberline {1}\IeC {\'I}ndice de estructura de datos}{1}
\contentsline {section}{\numberline {1.1}Estructura de datos}{1}
\contentsline {chapter}{\numberline {2}Indice de archivos}{3}
\contentsline {section}{\numberline {2.1}Lista de archivos}{3}
\contentsline {chapter}{\numberline {3}Documentaci\IeC {\'o}n de las estructuras de datos}{5}
\contentsline {section}{\numberline {3.1}Referencia de la Estructura Point}{5}
\contentsline {subsection}{\numberline {3.1.1}Documentaci\IeC {\'o}n de los campos}{5}
\contentsline {subsubsection}{\numberline {3.1.1.1}x}{5}
\contentsline {subsubsection}{\numberline {3.1.1.2}y}{5}
\contentsline {subsubsection}{\numberline {3.1.1.3}z}{5}
\contentsline {chapter}{\numberline {4}Documentaci\IeC {\'o}n de archivos}{7}
\contentsline {section}{\numberline {4.1}Referencia del Archivo /home/fernando/\discretionary {\unhbox \voidb@x \hbox {\relax \fontsize {7}{8}\selectfont $\leftarrow \joinrel \rhook $}}{}{}Bitbucket/opp-\/in-\/c/main.c}{7}
\contentsline {subsection}{\numberline {4.1.1}Documentaci\IeC {\'o}n de las funciones}{7}
\contentsline {subsubsection}{\numberline {4.1.1.1}main()}{7}
\contentsline {subsubsection}{\numberline {4.1.1.2}prom()}{7}
\contentsline {subsubsection}{\numberline {4.1.1.3}suma()}{8}
\contentsline {section}{\numberline {4.2}Referencia del Archivo /home/fernando/\discretionary {\unhbox \voidb@x \hbox {\relax \fontsize {7}{8}\selectfont $\leftarrow \joinrel \rhook $}}{}{}Bitbucket/opp-\/in-\/c/\discretionary {\unhbox \voidb@x \hbox {\relax \fontsize {7}{8}\selectfont $\leftarrow \joinrel \rhook $}}{}{}Pointx.h}{8}
\contentsline {subsection}{\numberline {4.2.1}Documentaci\IeC {\'o}n de las funciones}{8}
\contentsline {subsubsection}{\numberline {4.2.1.1}Point\discretionary {\unhbox \voidb@x \hbox {\relax \fontsize {7}{8}\selectfont $\leftarrow \joinrel \rhook $}}{}{}\_\discretionary {\unhbox \voidb@x \hbox {\relax \fontsize {7}{8}\selectfont $\leftarrow \joinrel \rhook $}}{}{}create()}{8}
\contentsline {subsubsection}{\numberline {4.2.1.2}Point\discretionary {\unhbox \voidb@x \hbox {\relax \fontsize {7}{8}\selectfont $\leftarrow \joinrel \rhook $}}{}{}\_\discretionary {\unhbox \voidb@x \hbox {\relax \fontsize {7}{8}\selectfont $\leftarrow \joinrel \rhook $}}{}{}init()}{8}
